…
## 
## Attaching package: 'MASS'

## The following object is masked from 'package:dplyr':
## 
##     select

data("Melanoma")
Melanoma %>% pivot_wider(names_from="status", values_from="age")

## # A tibble: 205 x 8
##     time   sex  year thickness ulcer   `3`   `2`   `1`
##    <int> <int> <int>     <dbl> <int> <int> <int> <int>
##  1    10     1  1972      6.76     1    76    NA    NA
##  2    30     1  1968      0.65     0    56    NA    NA
##  3    35     1  1977      1.34     0    NA    41    NA
##  4    99     0  1968      2.9      0    71    NA    NA
##  5   185     1  1965     12.1      1    NA    NA    52
##  6   204     1  1971      4.84     1    NA    NA    28
##  7   210     1  1972      5.16     1    NA    NA    77
##  8   232     0  1974      3.22     1    60    NA    NA
##  9   232     1  1968     12.9      1    NA    NA    49
## 10   279     0  1971      7.41     1    NA    NA    68
## # … with 195 more rows

melanomauntidy <-Melanoma %>% pivot_wider(names_from="status", values_from="age")
melanomauntidy %>% pivot_longer(c("3", "2", "1"), names_to="status", values_to="age")

## # A tibble: 615 x 7
##     time   sex  year thickness ulcer status   age
##    <int> <int> <int>     <dbl> <int> <chr>  <int>
##  1    10     1  1972      6.76     1 3         76
##  2    10     1  1972      6.76     1 2         NA
##  3    10     1  1972      6.76     1 1         NA
##  4    30     1  1968      0.65     0 3         56
##  5    30     1  1968      0.65     0 2         NA
##  6    30     1  1968      0.65     0 1         NA
##  7    35     1  1977      1.34     0 3         NA
##  8    35     1  1977      1.34     0 2         41
##  9    35     1  1977      1.34     0 1         NA
## 10    99     0  1968      2.9      0 3         71
## # … with 605 more rows

melanomatidy <-melanomauntidy %>% pivot_longer(c("3", "2", "1"), names_to="status", values_to="age")
lung %>% pivot_wider(names_from = "status", values_from = "age")

## # A tibble: 228 x 10
##     inst  time   sex ph.ecog ph.karno pat.karno meal.cal wt.loss   `2`
##    <dbl> <dbl> <dbl>   <dbl>    <dbl>     <dbl>    <dbl>   <dbl> <dbl>
##  1     3   306     1       1       90       100     1175      NA    74
##  2     3   455     1       0       90        90     1225      15    68
##  3     3  1010     1       0       90        90       NA      15    NA
##  4     5   210     1       1       90        60     1150      11    57
##  5     1   883     1       0      100        90       NA       0    60
##  6    12  1022     1       1       50        80      513       0    NA
##  7     7   310     2       2       70        60      384      10    68
##  8    11   361     2       2       60        80      538       1    71
##  9     1   218     1       1       70        80      825      16    53
## 10     7   166     1       2       70        70      271      34    61
## # … with 218 more rows, and 1 more variable: `1` <dbl>

lunguntidy <-lung %>% pivot_wider(names_from = "status", values_from = "age")
lunguntidy %>% pivot_longer(c("2", "1"), names_to="status", values_to="age")

## # A tibble: 456 x 10
##     inst  time   sex ph.ecog ph.karno pat.karno meal.cal wt.loss status
##    <dbl> <dbl> <dbl>   <dbl>    <dbl>     <dbl>    <dbl>   <dbl> <chr> 
##  1     3   306     1       1       90       100     1175      NA 2     
##  2     3   306     1       1       90       100     1175      NA 1     
##  3     3   455     1       0       90        90     1225      15 2     
##  4     3   455     1       0       90        90     1225      15 1     
##  5     3  1010     1       0       90        90       NA      15 2     
##  6     3  1010     1       0       90        90       NA      15 1     
##  7     5   210     1       1       90        60     1150      11 2     
##  8     5   210     1       1       90        60     1150      11 1     
##  9     1   883     1       0      100        90       NA       0 2     
## 10     1   883     1       0      100        90       NA       0 1     
## # … with 446 more rows, and 1 more variable: age <dbl>
…
